%YAML 1.1
%TAG !u! tag:unity3d.com,2011:
--- !u!21 &2100000
Material:
  serializedVersion: 6
  m_ObjectHideFlags: 0
  m_PrefabParentObject: {fileID: 0}
  m_PrefabInternal: {fileID: 0}
  m_Name: Water4Advanced
  m_Shader: {fileID: 4800000, guid: 475c4a4e617a8401b84ca7b32c7cc460, type: 3}
  m_ShaderKeywords: 
  m_LightmapFlags: 4
  m_EnableInstancingVariants: 0
  m_DoubleSidedGI: 0
  m_CustomRenderQueue: -1
  stringTagMap: {}
  disabledShaderPasses: []
  m_SavedProperties:
    serializedVersion: 3
    m_TexEnvs:
    - _BumpMap:
        m_Texture: {fileID: 2800000, guid: fb6566c21f717904f83743a5a76dd0b0, type: 3}
        m_Scale: {x: 1, y: 1}
        m_Offset: {x: 0, y: 0}
    - _Caustics:
        m_Texture: {fileID: 2800000, guid: eb9e91ee4c264b942a46baeec92ca0a4, type: 3}
        m_Scale: {x: 1, y: 1}
        m_Offset: {x: 0, y: 0}
    - _DecalTex:
        m_Texture: {fileID: 0}
        m_Scale: {x: 1, y: 1}
        m_Offset: {x: 0, y: 0}
    - _DepthMap:
        m_Texture: {fileID: 2800000, guid: ff6e0fbcfc24e4f95a2711ea0e73dd6a, type: 3}
        m_Scale: {x: 0.014, y: 0.014}
        m_Offset: {x: 0, y: 0}
    - _DisplacementHeightMap:
        m_Texture: {fileID: 2800000, guid: a782b26d6436b48d9882906b9f8ca31a, type: 2}
        m_Scale: {x: 1, y: 1}
        m_Offset: {x: 0, y: 0}
    - _Fresnel:
        m_Texture: {fileID: 2800000, guid: 5b5c5575fd4c74abd9f7b30862fb76a3, type: 3}
        m_Scale: {x: 1, y: 1}
        m_Offset: {x: 0, y: 0}
    - _HeightMask:
        m_Texture: {fileID: 2800000, guid: cff6f2c02e93742c095cd0c69d3d92ce, type: 3}
        m_Scale: {x: 1, y: 1}
        m_Offset: {x: 0, y: 0}
    - _MainTex:
        m_Texture: {fileID: 2800000, guid: e6f8288974c664a309d6c66de636978c, type: 3}
        m_Scale: {x: 1, y: 1}
        m_Offset: {x: 1, y: 1}
    - _ReflectionTex:
        m_Texture: {fileID: 0}
        m_Scale: {x: 1, y: 1}
        m_Offset: {x: 0, y: 0}
    - _ReflectiveColor:
        m_Texture: {fileID: 2800000, guid: 17680dc3bf8f74b498b01cf1481e2593, type: 3}
        m_Scale: {x: 1, y: 1}
        m_Offset: {x: 0, y: 0}
    - _ReflectiveColorCube:
        m_Texture: {fileID: 8900000, guid: 0620bdf0302d84423be4aa15b82a0e11, type: 2}
        m_Scale: {x: 0.15, y: 0.1}
        m_Offset: {x: 0, y: 0}
    - _RefractionTex:
        m_Texture: {fileID: 0}
        m_Scale: {x: 1, y: 1}
        m_Offset: {x: 0, y: 0}
    - _SecondDisplacementHeightMap:
        m_Texture: {fileID: 2800000, guid: 4facc21e08e3a43ed97c930f7dae6e7b, type: 2}
        m_Scale: {x: 1, y: 1}
        m_Offset: {x: 0, y: 0}
    - _ShoreTex:
        m_Texture: {fileID: 2800000, guid: 36dd0b22da8874ed38075789055ca664, type: 3}
        m_Scale: {x: 1, y: 1}
        m_Offset: {x: 1, y: 1}
    - _SpecialWavesTex:
        m_Texture: {fileID: 0}
        m_Scale: {x: 1, y: 1}
        m_Offset: {x: 0, y: 0}
    - _ThirdDisplacementHeightMap:
        m_Texture: {fileID: 2800000, guid: dc30b984e8e3c4cdfb38d5fceb411602, type: 2}
        m_Scale: {x: 1, y: 1}
        m_Offset: {x: 0, y: 0}
    - _WaterHolesTex:
        m_Texture: {fileID: 0}
        m_Scale: {x: 1, y: 1}
        m_Offset: {x: 0, y: 0}
    - _WavesTex:
        m_Texture: {fileID: 0}
        m_Scale: {x: 1, y: 1}
        m_Offset: {x: 0, y: 0}
    - m_DisplacementHeightMap:
        m_Texture: {fileID: 0}
        m_Scale: {x: 1, y: 1}
        m_Offset: {x: 0, y: 0}
    - m_SecondDisplacementHeightMap:
        m_Texture: {fileID: 0}
        m_Scale: {x: 1, y: 1}
        m_Offset: {x: 0, y: 0}
    m_Floats:
    - _Ambient: 1
    - _Displacement: 0.27863377
    - _DisplacementTiling: 18.586807
    - _FadeExp: 0.91503274
    - _FoamWaveDependency: 0.10205479
    - _FresnelPower: 1.7931035
    - _FresnelScale: 0.6571428
    - _GerstnerIntensity: 1.6714286
    - _HeightDisplacement: 3.2722514
    - _InvFade: 0.628783
    - _InvFadeDepthFade: 0.07197756
    - _InvFadeFoam: 0.1217
    - _NormalsDisplacement: 0
    - _ReflDistort: 0.9267696
    - _RefrDistort: 1.4393286
    - _Shininess: 313.21838
    - _ShoreTiling: 56.862743
    - _Speed: 0.4137931
    - _WaterDepth: 40.98077
    - _WaveCapsAmount: 0.18275861
    - _WaveFoamDistort: 0.27931035
    - _WaveScale: 0.046289656
    m_Colors:
    - WaveSpeed: {r: 1.086165, g: 4.440575, b: 12.105146, a: -3.0206447}
    - _AnimationDirection: {r: 2, g: 4, b: 2, a: -1}
    - _AnimationTiling: {r: 0.04582553, g: 0.0182, b: 0.045714468, a: 0.027129691}
    - _BaseColor: {r: 0.26443556, g: 0.47963274, b: 0.53676474, a: 0.82}
    - _BumpDirection: {r: 40, g: 40, b: 40, a: -40}
    - _BumpMap_ST: {r: 1, g: 1, b: 0, a: 0}
    - _BumpTiling: {r: 0.12, g: 0.07, b: 0.08, a: 0.06}
    - _Color: {r: 1, g: 1, b: 1, a: 1}
    - _DepthColor: {r: 0.027511697, g: 0.14179105, b: 0.13226777, a: 0.4627451}
    - _DepthColorFade: {r: 0.8880597, g: 0.27834705, b: 0.44463244, a: 0.22352941}
    - _Displacement: {r: 6.6371665, g: 20.353983, b: -1, a: -0.681416}
    - _DisplacementXz: {r: 0.6499999, g: -2.9203715, b: 1.6599998, a: -3.9363046}
    - _DistortParams: {r: 1.4399999, g: 0.24285714, b: 1.8530641, a: -0.53142846}
    - _Extinction: {r: 4.5, g: 75, b: 300, a: 1}
    - _Foam: {r: 0.42666668, g: 0.48666668, b: 0, a: 0}
    - _FoamWaveParams: {r: 0, g: 0.24918434, b: 3.3395782, a: 1}
    - _Fresnel_ST: {r: 1, g: 1, b: 0, a: 0}
    - _GAmplitude: {r: 0.14, g: 0.76, b: 0.175, a: 0.225}
    - _GDirectionAB: {r: 0.46914357, g: 0.35405126, b: -0.2, a: 0.1}
    - _GDirectionCD: {r: 0.7033888, g: -0.6799999, b: 0.7175735, a: -0.2}
    - _GFrequency: {r: 0.5, g: 0.38, b: 0.59, a: 0.6}
    - _GSpeed: {r: -1, g: 0, b: 1, a: 0}
    - _GSteepness: {r: 7, g: 2, b: 6, a: 2}
    - _HorizonColor: {r: 0.052907113, g: 0.24486735, b: 0.2835821, a: 1}
    - _InvFadeParemeter: {r: 0.21896552, g: 0.15944828, b: 0.04310345, a: 0}
    - _MainTex_ST: {r: 1, g: 1, b: 0, a: 0}
    - _ReflectionColor: {r: 0.32612458, g: 0.6318997, b: 0.85294116, a: 0.43137255}
    - _ReflectionTex_ST: {r: 1, g: 1, b: 0, a: 0}
    - _ReflectiveColorCube_ST: {r: 1, g: 1, b: 0, a: 0}
    - _ReflectiveColor_ST: {r: 1, g: 1, b: 0, a: 0}
    - _RefrColor: {r: 0.5233905, g: 0.9477612, b: 0.9121496, a: 1}
    - _RefrColorDepth: {r: 0.050066825, g: 0.23134327, b: 0.17049524, a: 1}
    - _RefractionFog: {r: 0.50543475, g: 0.50543475, b: 0.50543475, a: 0.5}
    - _RefractionTex_ST: {r: 1, g: 1, b: 0, a: 0}
    - _ShoreColor: {r: 1, g: 1, b: 1, a: 1}
    - _ShorePerturbation: {r: 0, g: 0, b: 0, a: 0}
    - _ShoreTiling: {r: 1, g: 1, b: 0.1, a: 0.1}
    - _SpecularColor: {r: 0.91791046, g: 0.91791046, b: 0.91791046, a: 1}
    - _UnderwaterColor: {r: 0.6950323, g: 0.89552236, b: 0.7502397, a: 1}
    - _WaveOffset: {r: 1, g: 1, b: -0.01, a: -0.01}
    - _WaveScale4: {r: 0.1, g: 0.1, b: 0.01, a: 0.01}
    - _WorldLightDir: {r: -0.029519161, g: -0.20151807, b: -0.97903985, a: 0}
--- !u!1002 &2100001
EditorExtensionImpl:
  serializedVersion: 6
